{"Y": [0.3573224416377655, -97.36779554762494, 0.8250009272918825, -0.09357761695846734, -0.9899999999874576, -2.1441184178990427, 0.0004407552995002868, 0.3573224416377655, -6.512607839453311, 0.4948055255309636, 0.8250009272918825, -10.87395887712725, -0.09357761695846734, -6.512607839453311, -97.36779554762494, -0.9899999999874576, 0.3573224416377655, 0.30189533676814173],
 "X": [0.7813121440234089, 23.181736710806394, 0.8249990726830324, -1.1368177718602304, 0.4124999999937286, 0.989559208949521, 0.9904407195485219, 0.7813121440234089, 9.941219185478179, 1.1550000000000002, 0.8249990726830324, -11.533958877127251, -1.1368177718602304, 9.941219185478179, 23.181736710806394, 0.4124999999937286, 0.7813121440234089, 1.0584476683715283],
 "errore": [0.8591437561295724, 100.0893627052008, 1.1667261889408025, 1.1406627094864128, 1.0724999999860103, 2.3614553178052504, 0.9904408176186136, 0.8591437561295724, 11.884523539638774, 1.256525967935392, 1.1667261889408025, 15.851662027709178, 1.1406627094864128, 11.884523539638774, 100.0893627052008, 1.0724999999860103, 0.8591437561295724, 1.1006599207036996],
 "erroreMedio": 14.158095867037025,
 "varianzaErrore": 943.3654000503761}